{
  "flag": true,
  "data": {
    "pageInfo": {
      "pageCount": 10,
      "pageIndex": 0,
      "totalCount": 12
    },
    "pageList": [
      {
        "bankCode": "2",
        "settlementNo": "JS1701583324031",
        "settlementCount": "1",
        "parkNames": [
          "郴州市乐仙雅苑"
        ],
        "voucherAmount": "0.00",
        "receivableAmount": "5.00",
        "sellVoucherAmount": "0.00",
        "electronicReceipt": "-",
        "transeferSuccessDt": "-",
        "platformVerificationAmount": "0.00",
        "settlementStatus": "审核通过",
        "jiaohangStatus": "-",
        "clearType": "手动结算",
        "startTime": "2023-12-03 14:02:04",
        "settlementAmount": "4.97",
        "endTime": "2023-12-04 09:42:12",
        "parkOwnerName": "郴州市乐仙雅苑",
        "paymentTime": "2023-12-02至2023-12-02",
        "handFee": "0.03",
        "refundAmount": "0.00"
      },
      {
        "bankCode": "2",
        "settlementNo": "JS1701496920354",
        "settlementCount": "1",
        "parkNames": [
          "郴州市乐仙雅苑"
        ],
        "voucherAmount": "0.00",
        "receivableAmount": "5.00",
        "sellVoucherAmount": "0.00",
        "electronicReceipt": "-",
        "transeferSuccessDt": "-",
        "platformVerificationAmount": "0.00",
        "settlementStatus": "审核通过",
        "jiaohangStatus": "-",
        "clearType": "手动结算",
        "startTime": "2023-12-02 14:02:00",
        "settlementAmount": "4.97",
        "endTime": "2023-12-04 09:37:10",
        "parkOwnerName": "郴州市乐仙雅苑",
        "paymentTime": "2023-12-01至2023-12-01",
        "handFee": "0.03",
        "refundAmount": "0.00"
      },
      {
        "bankCode": "2",
        "settlementNo": "JS1701237717896",
        "settlementCount": "1",
        "parkNames": [
          "郴州市乐仙雅苑"
        ],
        "voucherAmount": "0.00",
        "receivableAmount": "5.00",
        "sellVoucherAmount": "0.00",
        "electronicReceipt": "-",
        "transeferSuccessDt": "-",
        "platformVerificationAmount": "0.00",
        "settlementStatus": "审核通过",
        "jiaohangStatus": "-",
        "clearType": "手动结算",
        "startTime": "2023-11-29 14:01:58",
        "settlementAmount": "4.97",
        "endTime": "2023-11-29 17:23:47",
        "parkOwnerName": "郴州市乐仙雅苑",
        "paymentTime": "2023-11-28至2023-11-28",
        "handFee": "0.03",
        "refundAmount": "0.00"
      },
      {
        "bankCode": "2",
        "settlementNo": "JS1701064920171",
        "settlementCount": "1",
        "parkNames": [
          "郴州市乐仙雅苑"
        ],
        "voucherAmount": "0.00",
        "receivableAmount": "10.00",
        "sellVoucherAmount": "0.00",
        "electronicReceipt": "-",
        "transeferSuccessDt": "-",
        "platformVerificationAmount": "0.00",
        "settlementStatus": "审核通过",
        "jiaohangStatus": "-",
        "clearType": "手动结算",
        "startTime": "2023-11-27 14:02:00",
        "settlementAmount": "9.94",
        "endTime": "2023-11-27 14:57:56",
        "parkOwnerName": "郴州市乐仙雅苑",
        "paymentTime": "2023-11-26至2023-11-26",
        "handFee": "0.06",
        "refundAmount": "0.00"
      },
      {
        "bankCode": "2",
        "settlementNo": "JS1700978509841",
        "settlementCount": "2",
        "parkNames": [
          "郴州市乐仙雅苑"
        ],
        "voucherAmount": "0.00",
        "receivableAmount": "255.00",
        "sellVoucherAmount": "0.00",
        "electronicReceipt": "-",
        "transeferSuccessDt": "-",
        "platformVerificationAmount": "0.00",
        "settlementStatus": "审核通过",
        "jiaohangStatus": "-",
        "clearType": "手动结算",
        "startTime": "2023-11-26 14:01:50",
        "settlementAmount": "253.47",
        "endTime": "2023-11-27 08:58:22",
        "parkOwnerName": "郴州市乐仙雅苑",
        "paymentTime": "2023-11-25至2023-11-25",
        "handFee": "1.53",
        "refundAmount": "0.00"
      },
      {
        "bankCode": "2",
        "settlementNo": "JS1700892122578",
        "settlementCount": "1",
        "parkNames": [
          "郴州市乐仙雅苑"
        ],
        "voucherAmount": "0.00",
        "receivableAmount": "10.00",
        "sellVoucherAmount": "0.00",
        "electronicReceipt": "-",
        "transeferSuccessDt": "-",
        "platformVerificationAmount": "0.00",
        "settlementStatus": "审核通过",
        "jiaohangStatus": "-",
        "clearType": "手动结算",
        "startTime": "2023-11-25 14:02:03",
        "settlementAmount": "9.94",
        "endTime": "2023-11-27 08:57:38",
        "parkOwnerName": "郴州市乐仙雅苑",
        "paymentTime": "2023-11-24至2023-11-24",
        "handFee": "0.06",
        "refundAmount": "0.00"
      },
      {
        "bankCode": "2",
        "settlementNo": "JS1700805724866",
        "settlementCount": "4",
        "parkNames": [
          "郴州市乐仙雅苑"
        ],
        "voucherAmount": "0.00",
        "receivableAmount": "25.00",
        "sellVoucherAmount": "0.00",
        "electronicReceipt": "-",
        "transeferSuccessDt": "-",
        "platformVerificationAmount": "0.00",
        "settlementStatus": "审核通过",
        "jiaohangStatus": "-",
        "clearType": "手动结算",
        "startTime": "2023-11-24 14:02:05",
        "settlementAmount": "24.85",
        "endTime": "2023-11-24 17:12:17",
        "parkOwnerName": "郴州市乐仙雅苑",
        "paymentTime": "2023-11-23至2023-11-23",
        "handFee": "0.15",
        "refundAmount": "0.00"
      },
      {
        "bankCode": "2",
        "settlementNo": "JS1700719321709",
        "settlementCount": "3",
        "parkNames": [
          "郴州市乐仙雅苑"
        ],
        "voucherAmount": "0.00",
        "receivableAmount": "20.00",
        "sellVoucherAmount": "0.00",
        "electronicReceipt": "-",
        "transeferSuccessDt": "-",
        "platformVerificationAmount": "0.00",
        "settlementStatus": "审核通过",
        "jiaohangStatus": "-",
        "clearType": "手动结算",
        "startTime": "2023-11-23 14:02:02",
        "settlementAmount": "19.88",
        "endTime": "2023-11-23 15:44:01",
        "parkOwnerName": "郴州市乐仙雅苑",
        "paymentTime": "2023-11-22至2023-11-22",
        "handFee": "0.12",
        "refundAmount": "0.00"
      },
      {
        "bankCode": "2",
        "settlementNo": "JS1700632912724",
        "settlementCount": "4",
        "parkNames": [
          "郴州市乐仙雅苑"
        ],
        "voucherAmount": "0.00",
        "receivableAmount": "20.00",
        "sellVoucherAmount": "0.00",
        "electronicReceipt": "-",
        "transeferSuccessDt": "-",
        "platformVerificationAmount": "0.00",
        "settlementStatus": "审核通过",
        "jiaohangStatus": "-",
        "clearType": "手动结算",
        "startTime": "2023-11-22 14:01:53",
        "settlementAmount": "19.88",
        "endTime": "2023-11-22 18:54:13",
        "parkOwnerName": "郴州市乐仙雅苑",
        "paymentTime": "2023-11-21至2023-11-21",
        "handFee": "0.12",
        "refundAmount": "0.00"
      },
      {
        "bankCode": "2",
        "settlementNo": "JS1700546522551",
        "settlementCount": "3",
        "parkNames": [
          "郴州市乐仙雅苑"
        ],
        "voucherAmount": "0.00",
        "receivableAmount": "20.00",
        "sellVoucherAmount": "0.00",
        "electronicReceipt": "-",
        "transeferSuccessDt": "-",
        "platformVerificationAmount": "0.00",
        "settlementStatus": "审核通过",
        "jiaohangStatus": "-",
        "clearType": "手动结算",
        "startTime": "2023-11-21 14:02:03",
        "settlementAmount": "19.88",
        "endTime": "2023-11-21 14:32:20",
        "parkOwnerName": "郴州市乐仙雅苑",
        "paymentTime": "2023-11-20至2023-11-20",
        "handFee": "0.12",
        "refundAmount": "0.00"
      }
    ]
  },
  "msg": null
}